Data prep and analysis of skilled nursing facilities
…
And all of these are located in skilled nursing facilities. NF2_BEDS
is not included in the NH_BEDS. Why? These beds are not in a skilled
nursing facility, but rather in a “group home” which is a small, private
facility.

So with this figured out, let’s create a dataset that has all five of
these columns because it will be good to be able to split these out
further in the analysis.

master.snf <- master.original %>%
  select(year, LIC_TYPE, NH_BEDS, SNF_BEDS, SNFNF_BEDS, NF1_BEDS, NF2_BEDS, HFID, NAME, CITY, STATE, ZIP, COUNTY_NAME, countyfp, Dem_Desc, edr, planning.region)

master.snf

## # A tibble: 22,266 × 17
##     year LIC_TYPE      NH_BEDS SNF_BEDS SNFNF_BEDS NF1_BEDS NF2_BEDS  HFID NAME 
##    <dbl> <chr>           <dbl>    <dbl>      <dbl>    <dbl>    <dbl> <dbl> <chr>
##  1  2024 CORPORATION         0        0          0        0        0 20533 WHIS…
##  2  2024 Sole Proprie…       0        0          0        0        0 20285 LONG…
##  3  2024 Non Profit L…       0        0          0        0        0 21206 OSSE…
##  4  2024 LIMITED LIAB…       0        0          0        0        0 21226 HOME…
##  5  2024 NONPROFIT CO…      80        0         80        0        0 21170 INTE…
##  6  2024 NONPROFIT CO…       0        0          0        0        0 22058 ECUM…
##  7  2024 CITY                0        0          0        0        0   796 WIND…
##  8  2024 CORPORATION         0        0          0        0        0 26335 FIRS…
##  9  2024 For-Profit L…       0        0          0        0        0 25729 SELE…
## 10  2024 CHURCH RELAT…       0        0          0        0        0 20711 ST B…
## # ℹ 22,256 more rows
## # ℹ 8 more variables: CITY <chr>, STATE <chr>, ZIP <dbl>, COUNTY_NAME <chr>,
## #   countyfp <chr>, Dem_Desc <fct>, edr <fct>, planning.region <fct>
…
