Supply and Demand for SNF
…
      Home and Community Based Health Care

Supply and Demand for SNF

master.original <- read_csv("Data/Facilities/Master-provider-directory-2005-2024.csv") %>%
  mutate(Dem_Desc = fct_relevel(Dem_Desc, "Entirely rural", "Town/rural mix", "Urban/town/rural mix", "Entirely urban"),
         planning.region = fct_relevel(planning.region, "Northwest", "Northeast", "Central", "Seven County Mpls-St Paul", "Southwest", "Southeast"),
         edr = fct_relevel(edr, "EDR 1 - Northwest", "EDR 2 - Headwaters", "EDR 3 - Arrowhead", "EDR 4 - West Central", "EDR 5 - North Central", "EDR 6E- Southwest Central", "EDR 6W- Upper Minnesota Valley", "EDR 7E- East Central", "EDR 7W- Central", "EDR 8 - Southwest", "EDR 9 - South Central", "EDR 10 - Southeast", "EDR 11 - 7 County Twin Cities", "Minnesota"))

master.snf <- master.original %>%
  select(year, LIC_TYPE, NH_BEDS, SNF_BEDS, SNFNF_BEDS, NF1_BEDS, NF2_BEDS, HFID, NAME, CITY, STATE, ZIP, COUNTY_NAME, countyfp, Dem_Desc, edr, planning.region)

master.snf

## # A tibble: 22,266 × 17
##     year LIC_TYPE      NH_BEDS SNF_BEDS SNFNF_BEDS NF1_BEDS NF2_BEDS  HFID NAME 
##    <dbl> <chr>           <dbl>    <dbl>      <dbl>    <dbl>    <dbl> <dbl> <chr>
##  1  2024 CORPORATION         0        0          0        0        0 20533 WHIS…
##  2  2024 Sole Proprie…       0        0          0        0        0 20285 LONG…
##  3  2024 Non Profit L…       0        0          0        0        0 21206 OSSE…
##  4  2024 LIMITED LIAB…       0        0          0        0        0 21226 HOME…
##  5  2024 NONPROFIT CO…      80        0         80        0        0 21170 INTE…
##  6  2024 NONPROFIT CO…       0        0          0        0        0 22058 ECUM…
##  7  2024 CITY                0        0          0        0        0   796 WIND…
##  8  2024 CORPORATION         0        0          0        0        0 26335 FIRS…
##  9  2024 For-Profit L…       0        0          0        0        0 25729 SELE…
## 10  2024 CHURCH RELAT…       0        0          0        0        0 20711 ST B…
## # ℹ 22,256 more rows
## # ℹ 8 more variables: CITY <chr>, STATE <chr>, ZIP <dbl>, COUNTY_NAME <chr>,
## #   countyfp <chr>, Dem_Desc <fct>, edr <fct>, planning.region <fct>
…
